%YAML 1.1
%TAG !u! tag:unity3d.com,2011:
--- !u!74 &7400000
AnimationClip:
  m_ObjectHideFlags: 0
  m_CorrespondingSourceObject: {fileID: 0}
  m_PrefabInstance: {fileID: 0}
  m_PrefabAsset: {fileID: 0}
  m_Name: Ninja_Running
  serializedVersion: 6
  m_Legacy: 0
  m_Compressed: 0
  m_UseHighQualityCurve: 1
  m_RotationCurves: []
  m_CompressedRotationCurves: []
  m_EulerCurves: []
  m_PositionCurves: []
  m_ScaleCurves: []
  m_FloatCurves: []
  m_PPtrCurves:
  - curve:
    - time: 0
      value: {fileID: 21300000, guid: 1f760e37fb8d83141ae09cb8be85479b, type: 3}
    - time: 0.083333336
      value: {fileID: 21300000, guid: 9217c2cb6dd4f5d438c3fb9dc67d608d, type: 3}
    - time: 0.16666667
      value: {fileID: 21300000, guid: ba4ac2662747bd54e8105c68c2f3ef87, type: 3}
    - time: 0.25
      value: {fileID: 21300000, guid: 1a3002dc38840f54d8b8f8615ebba73e, type: 3}
    - time: 0.33333334
      value: {fileID: 21300000, guid: 51901410a7cea13419d75020bd8db082, type: 3}
    - time: 0.41666666
      value: {fileID: 21300000, guid: e1a52362708d0fd4e90cd8d3898adbb9, type: 3}
    - time: 0.5
      value: {fileID: 21300000, guid: 746b2c5b443ba6947a7624c792794e92, type: 3}
    - time: 0.5833333
      value: {fileID: 21300000, guid: aeeff3839ec74e54c9f752baef6773bb, type: 3}
    - time: 0.6666667
      value: {fileID: 21300000, guid: c468eef2083f47248b7f6114aeaa888e, type: 3}
    - time: 0.75
      value: {fileID: 21300000, guid: 5d0004b56ae9cfe49a27fa610dcb0366, type: 3}
    - time: 0.8333333
      value: {fileID: 21300000, guid: 2f4aa6abb5aa6cb4f95b84933d10c897, type: 3}
    attribute: m_Sprite
    path: 
    classID: 212
    script: {fileID: 0}
  m_SampleRate: 12
  m_WrapMode: 0
  m_Bounds:
    m_Center: {x: 0, y: 0, z: 0}
    m_Extent: {x: 0, y: 0, z: 0}
  m_ClipBindingConstant:
    genericBindings:
    - serializedVersion: 2
      path: 0
      attribute: 0
      script: {fileID: 0}
      typeID: 212
      customType: 23
      isPPtrCurve: 1
    pptrCurveMapping:
    - {fileID: 21300000, guid: 1f760e37fb8d83141ae09cb8be85479b, type: 3}
    - {fileID: 21300000, guid: 9217c2cb6dd4f5d438c3fb9dc67d608d, type: 3}
    - {fileID: 21300000, guid: ba4ac2662747bd54e8105c68c2f3ef87, type: 3}
    - {fileID: 21300000, guid: 1a3002dc38840f54d8b8f8615ebba73e, type: 3}
    - {fileID: 21300000, guid: 51901410a7cea13419d75020bd8db082, type: 3}
    - {fileID: 21300000, guid: e1a52362708d0fd4e90cd8d3898adbb9, type: 3}
    - {fileID: 21300000, guid: 746b2c5b443ba6947a7624c792794e92, type: 3}
    - {fileID: 21300000, guid: aeeff3839ec74e54c9f752baef6773bb, type: 3}
    - {fileID: 21300000, guid: c468eef2083f47248b7f6114aeaa888e, type: 3}
    - {fileID: 21300000, guid: 5d0004b56ae9cfe49a27fa610dcb0366, type: 3}
    - {fileID: 21300000, guid: 2f4aa6abb5aa6cb4f95b84933d10c897, type: 3}
  m_AnimationClipSettings:
    serializedVersion: 2
    m_AdditiveReferencePoseClip: {fileID: 0}
    m_AdditiveReferencePoseTime: 0
    m_StartTime: 0
    m_StopTime: 0.9166666
    m_OrientationOffsetY: 0
    m_Level: 0
    m_CycleOffset: 0
    m_HasAdditiveReferencePose: 0
    m_LoopTime: 1
    m_LoopBlend: 0
    m_LoopBlendOrientation: 0
    m_LoopBlendPositionY: 0
    m_LoopBlendPositionXZ: 0
    m_KeepOriginalOrientation: 0
    m_KeepOriginalPositionY: 1
    m_KeepOriginalPositionXZ: 0
    m_HeightFromFeet: 0
    m_Mirror: 0
  m_EditorCurves: []
  m_EulerEditorCurves: []
  m_HasGenericRootTransform: 0
  m_HasMotionFloatCurves: 0
  m_Events: []
